{
  "meta": {
    "pagination": {
      "total": 1332,
      "pages": 67,
      "page": 1,
      "limit": 20,
      "links": {
        "previous": null,
        "current": "https://gorest.co.in/public/v1/comments?page=1",
        "next": "https://gorest.co.in/public/v1/comments?page=2"
      }
    }
  },
  "data": [
    {
      "id": 1,
      "post_id": 4,
      "name": "Deependra Jha",
      "email": "deependra_jha@kunde.info",
      "body": "Inventore qui quia."
    },
    {
      "id": 2,
      "post_id": 4,
      "name": "Kailash Trivedi",
      "email": "trivedi_kailash@kiehn-kihn.net",
      "body": "Est autem expedita. In fugiat optio."
    },
    {
      "id": 3,
      "post_id": 6,
      "name": "Chitrali Kaul",
      "email": "kaul_chitrali@graham-sanford.com",
      "body": "Sed eius libero. Distinctio accusamus eius. Dicta voluptatem ad."
    },
    {
      "id": 5,
      "post_id": 8,
      "name": "Deeptiman Chattopadhyay",
      "email": "deeptiman_chattopadhyay@mohr-breitenberg.name",
      "body": "Rerum ad et. Natus quia consequatur. Sapiente corporis iure. Quis consequatur repellat."
    },
    {
      "id": 6,
      "post_id": 8,
      "name": "Subhash Patel",
      "email": "patel_subhash@macgyver-lemke.org",
      "body": "Quaerat modi qui. Labore ut exercitationem."
    },
    {
      "id": 7,
      "post_id": 9,
      "name": "Daiwik Ahluwalia",
      "email": "ahluwalia_daiwik@kirlin.biz",
      "body": "Et voluptatem nesciunt. Aut voluptatem ab. Sunt sit sint. Culpa excepturi quae."
    },
    {
      "id": 8,
      "post_id": 9,
      "name": "Kumari Talwar",
      "email": "talwar_kumari@koch.co",
      "body": "Iste at ipsum."
    },
    {
      "id": 9,
      "post_id": 10,
      "name": "Jyotsana Tandon CPA",
      "email": "tandon_jyotsana_cpa@huels-smith.biz",
      "body": "Nemo id officia. Alias eius facere. Dicta et facilis."
    },
    {
      "id": 10,
      "post_id": 10,
      "name": "Apsara Nair",
      "email": "nair_apsara@braun-turner.info",
      "body": "Non harum aut. Voluptatem non unde. Atque explicabo dolores."
    },
    {
      "id": 13,
      "post_id": 12,
      "name": "Shubhaprada Deshpande",
      "email": "shubhaprada_deshpande@littel-schroeder.co",
      "body": "Autem voluptatem excepturi."
    },
    {
      "id": 14,
      "post_id": 12,
      "name": "Shubhaprada Sharma",
      "email": "sharma_shubhaprada@kling.org",
      "body": "Aliquam ab voluptatem. Id dolore at. Saepe dolore qui."
    },
    {
      "id": 15,
      "post_id": 13,
      "name": "Geeta Tagore",
      "email": "geeta_tagore@orn.net",
      "body": "Aspernatur eveniet ducimus. Corrupti voluptas omnis. Voluptatum et architecto."
    },
    {
      "id": 16,
      "post_id": 13,
      "name": "Aadi Achari III",
      "email": "achari_iii_aadi@nader.org",
      "body": "Fugit nulla harum."
    },
    {
      "id": 17,
      "post_id": 14,
      "name": "Aishani Johar PhD",
      "email": "phd_aishani_johar@corwin-bayer.name",
      "body": "Hic nam maxime."
    },
    {
      "id": 18,
      "post_id": 15,
      "name": "Ujjawal Asan",
      "email": "ujjawal_asan@kulas.info",
      "body": "Quo eum et. A in accusamus. Eum velit pariatur."
    },
    {
      "id": 19,
      "post_id": 16,
      "name": "Chandramohan Guneta",
      "email": "guneta_chandramohan@mayert.biz",
      "body": "Error doloribus est."
    },
    {
      "id": 20,
      "post_id": 17,
      "name": "Mrs. Aagam Ahluwalia",
      "email": "aagam_mrs_ahluwalia@balistreri-homenick.name",
      "body": "Tempore adipisci voluptas."
    },
    {
      "id": 21,
      "post_id": 17,
      "name": "Ms. Girish Iyengar",
      "email": "iyengar_ms_girish@kertzmann.org",
      "body": "Repellendus eos distinctio. Voluptatibus officia voluptates."
    },
    {
      "id": 22,
      "post_id": 18,
      "name": "Agnivesh Nambeesan",
      "email": "nambeesan_agnivesh@little-rippin.io",
      "body": "Perspiciatis corrupti amet. Eaque nihil explicabo. Deleniti quo eum."
    },
    {
      "id": 23,
      "post_id": 19,
      "name": "Susheel Bhat",
      "email": "bhat_susheel@jaskolski-botsford.co",
      "body": "Minima neque hic. Maiores qui dolorem. Vel ea non."
    }
  ]
}
